-----BEGIN PGP SIGNATURE-----

iHUEABYIAB0WIQRLSiy56hzPvq1pYJruVLzHiGEHrgUCZNXEogAKCRDuVLzHiGEH
rlyvAP4/M7qNsc7hhbz+I4/GFWgKVMxB1+m5pNhPCOC7m4SOpQEA+vYHKmhbDum4
GXvSfZf+OU6fkOQ2LUvkv16p1yWbmQg=
=n/pD
-----END PGP SIGNATURE-----
