-----BEGIN PGP SIGNATURE-----

iHUEABYIAB0WIQRLSiy56hzPvq1pYJruVLzHiGEHrgUCZNXEtQAKCRDuVLzHiGEH
ribkAQD4+0h5xQJt6EuHYYGxzXoH6c8VzDS9USveeGtmg4HEHgEArvMrtq2hh6iY
QLscR7gmo6+Zmu68GJSwVk0jl4N9oQQ=
=8aPZ
-----END PGP SIGNATURE-----
