-----BEGIN PGP SIGNATURE-----

iHUEABYIAB0WIQRLSiy56hzPvq1pYJruVLzHiGEHrgUCZNXEoAAKCRDuVLzHiGEH
rtuDAP4nuXf+sGFkeceBTxJXP5Uj3OjKkt4uLHMrAW/Bo9BmugD9GkiHIz+MdJVj
obPE+qxHXrcyrDl6MEvQXCtJZ9cyWA0=
=XgfB
-----END PGP SIGNATURE-----
