-----BEGIN PGP SIGNATURE-----

iHUEABYIAB0WIQRLSiy56hzPvq1pYJruVLzHiGEHrgUCZNXEsQAKCRDuVLzHiGEH
rqQdAP9zlOdN4rtP1mTSuMCp6VsN2gJcCokk35maV+ayvMkDXAD/cjg/UwJ2/ZoV
H2B1rWUAYOHZhsek8p9te94+iIYbJQk=
=zxtp
-----END PGP SIGNATURE-----
