-----BEGIN PGP SIGNATURE-----

iHUEABYIAB0WIQRLSiy56hzPvq1pYJruVLzHiGEHrgUCZNXEsgAKCRDuVLzHiGEH
rjSaAQCfN0GF6RnWZ+n8bH/Speds7BKA/4+l4ZJC6CmQITJrQQD9Eb3h9YhvAkKi
HnRpjUwciFfRKaFjcpbYIP+LkgoyyAY=
=kmZr
-----END PGP SIGNATURE-----
