-----BEGIN PGP SIGNATURE-----

iHUEABYIAB0WIQRLSiy56hzPvq1pYJruVLzHiGEHrgUCZNXErAAKCRDuVLzHiGEH
rm1KAQCiqrTI06m+xx9g/Kud6w/0+TmuCRB7f49B1lI7YeXZQQD8DzlBArNvrX+I
vHbO2v+76gd+8vRK+yUFMUIAQPrsgQM=
=w6hu
-----END PGP SIGNATURE-----
