-----BEGIN PGP SIGNATURE-----

iHUEABYIAB0WIQRLSiy56hzPvq1pYJruVLzHiGEHrgUCZNXEoQAKCRDuVLzHiGEH
rgCNAQDSfUnyga9hBIB2v8Nie4CjEfA5i+PXA0yZEIV42TQyCgD/YBFQd5stJ7qP
F2JY9fkTfTkklVt9yu7r4rqvpDNa/QU=
=dAfr
-----END PGP SIGNATURE-----
