-----BEGIN PGP SIGNATURE-----

iHUEABYIAB0WIQRLSiy56hzPvq1pYJruVLzHiGEHrgUCZNXEqQAKCRDuVLzHiGEH
rvAsAQDi0kNhnMqgAo4LTH940YPK7JLUeF+r8ZXcSviJpXtv+AD/WioXXbpOBij7
X+l3D2EPvH+Y7Kvl2JAKrOqp08vlKQs=
=Owhn
-----END PGP SIGNATURE-----
