-----BEGIN PGP SIGNATURE-----

iHUEABYIAB0WIQRLSiy56hzPvq1pYJruVLzHiGEHrgUCZNXEsgAKCRDuVLzHiGEH
rgmmAQCr+aur8/i0ymymMIKOsC1AiyNLkXFPb2Y8RlULkg/f1QD/R0gtM4+3cU3S
oaEc2UHxKKZotkozu9HAkIxXTXNkBgY=
=DJ31
-----END PGP SIGNATURE-----
