-----BEGIN PGP SIGNATURE-----

iHUEABYIAB0WIQRLSiy56hzPvq1pYJruVLzHiGEHrgUCZNXErgAKCRDuVLzHiGEH
rjP/AQCkGK8tUDqfkCK7okQRXXc7x5ObhlcCO7CocODs+8wn4wEAm1fVRmFICE6s
VAC0xIyCop0h+9WUZq+lL/tCXiE24gQ=
=6dSq
-----END PGP SIGNATURE-----
