-----BEGIN PGP SIGNATURE-----

iHUEABYIAB0WIQRLSiy56hzPvq1pYJruVLzHiGEHrgUCZNXEpwAKCRDuVLzHiGEH
rk2lAP4ucvMLPEQ9I+407BRTpFPgkZ2hj5fllIeI95qsWuB2QQD/f5PfLFoTU3QM
FilhoUOMy6BUElsHYDvNqRiQzihwOAs=
=4Pgk
-----END PGP SIGNATURE-----
