-----BEGIN PGP SIGNATURE-----

iHUEABYIAB0WIQRLSiy56hzPvq1pYJruVLzHiGEHrgUCZNXEsQAKCRDuVLzHiGEH
rtguAQDzRAfgfmsaZOnwjoKVmsQYfEkJ2UEJ+iUVREvrjtQGVQEAjDPgzrdPY2j7
F44ztPDWPbmJT1HxwykqR5D3DDZRiwc=
=fF1e
-----END PGP SIGNATURE-----
