-----BEGIN PGP SIGNATURE-----

iHUEABYIAB0WIQRLSiy56hzPvq1pYJruVLzHiGEHrgUCZNXErAAKCRDuVLzHiGEH
rrQcAP4/PFRAXDZardP3iNGBV/3GGg+FxPjSYBE3cv0vtlJK5AD9Gv2MIaoFoIiQ
8xWI2V+OyGkEQHvXfYp/7lPtYphKug4=
=Nyvx
-----END PGP SIGNATURE-----
