-----BEGIN PGP SIGNATURE-----

iHUEABYIAB0WIQRLSiy56hzPvq1pYJruVLzHiGEHrgUCZNXEngAKCRDuVLzHiGEH
rjXLAP0eug56EmOLRbbCiOYtM+Xo2z/CYB7zhpkuNzxmCn/02AD8D8dRQHHm/SdD
iQ6jdl4G37BKtNxyvS+hFmMMUfOsZgY=
=k+Wj
-----END PGP SIGNATURE-----
